{
    "name": "Cliente",
    "fields": [
        {
            "fieldName": "nombre",
            "fieldType": "String"
        },
        {
            "fieldName": "cif",
            "fieldType": "String"
        },
        {
            "fieldName": "apoderado",
            "fieldType": "String"
        },
        {
            "fieldName": "nacimiento",
            "fieldType": "LocalDate",
            "fieldValidateRules": [
                "required"
            ]
        },
        {
            "fieldName": "dni",
            "fieldType": "String"
        },
        {
            "fieldName": "personaContacto",
            "fieldType": "String"
        },
        {
            "fieldName": "correo",
            "fieldType": "String"
        },
        {
            "fieldName": "telefono",
            "fieldType": "Long"
        },
        {
            "fieldName": "direccion",
            "fieldType": "String"
        },
        {
            "fieldName": "localidad",
            "fieldType": "String"
        },
        {
            "fieldName": "provincia",
            "fieldType": "String"
        },
        {
            "fieldName": "codigoPostal",
            "fieldType": "Long"
        },
        {
            "fieldName": "cta",
            "fieldType": "String"
        },
        {
            "fieldName": "observaciones",
            "fieldType": "String"
        },
        {
            "fieldName": "penalizacionesVF",
            "fieldType": "Long"
        },
        {
            "fieldName": "penalizacionesUn4tel",
            "fieldType": "Long"
        },
        {
            "fieldName": "liberalizaciones",
            "fieldType": "Long"
        },
        {
            "fieldName": "costeAlcliente",
            "fieldType": "Long"
        },
        {
            "fieldName": "ocultarComerciales",
            "fieldType": "Boolean"
        }
    ],
    "relationships": [
        {
            "relationshipType": "one-to-many",
            "otherEntityName": "oferta",
            "otherEntityRelationshipName": "cliente",
            "relationshipName": "oferta"
        },
        {
            "relationshipType": "one-to-many",
            "otherEntityName": "gasto",
            "otherEntityRelationshipName": "cliente",
            "relationshipName": "gasto"
        }
    ],
    "changelogDate": "20190323091953",
    "entityTableName": "cliente",
    "dto": "no",
    "pagination": "pagination",
    "service": "no",
    "jpaMetamodelFiltering": false,
    "fluentMethods": true,
    "clientRootFolder": "",
    "applications": "*"
}