{
    "name": "Producto",
    "fields": [
        {
            "fieldName": "nombre",
            "fieldType": "String"
        },
        {
            "fieldName": "spirit",
            "fieldType": "String"
        },
        {
            "fieldName": "ow",
            "fieldType": "String"
        },
        {
            "fieldName": "comisionConPermanencia",
            "fieldType": "Long"
        },
        {
            "fieldName": "comisionSinPermanencia",
            "fieldType": "Long"
        },
        {
            "fieldName": "rappel",
            "fieldType": "Float"
        },
        {
            "fieldName": "precioVenta",
            "fieldType": "Float"
        }
    ],
    "relationships": [
        {
            "relationshipType": "one-to-many",
            "otherEntityName": "linea",
            "otherEntityRelationshipName": "producto",
            "relationshipName": "linea"
        },
        {
            "relationshipType": "many-to-one",
            "otherEntityName": "familia",
            "otherEntityRelationshipName": "producto",
            "relationshipName": "familia",
            "otherEntityField": "id"
        },
        {
            "relationshipType": "many-to-one",
            "otherEntityName": "cuentaLinea",
            "otherEntityRelationshipName": "producto",
            "relationshipName": "cuentaLinea",
            "otherEntityField": "id"
        }
    ],
    "changelogDate": "20190323091957",
    "entityTableName": "producto",
    "dto": "no",
    "pagination": "pagination",
    "service": "no",
    "jpaMetamodelFiltering": false,
    "fluentMethods": true,
    "clientRootFolder": "",
    "applications": "*"
}